Árboles de Decisión_Predicción de Diabetes
…
46.04 sec elapsed

#Evaluación de los resultados

collect_metrics(tree_res)

# A tibble: 30 × 9
   cost_complexity tree_depth min_n .metric .estim…¹  mean     n std_err .config
             <dbl>      <int> <int> <chr>   <chr>    <dbl> <int>   <dbl> <chr>  
 1        5.04e- 3          6     9 roc_auc binary   0.753    10  0.0265 Prepro…
 2        1.24e- 4          8    28 roc_auc binary   0.742    10  0.0237 Prepro…
 3        2.18e- 5          8     2 roc_auc binary   0.686    10  0.0308 Prepro…
 4        1.12e- 4          8    40 roc_auc binary   0.757    10  0.0181 Prepro…
 5        3.27e- 4          4    28 roc_auc binary   0.744    10  0.0234 Prepro…
 6        1.35e- 5         14     4 roc_auc binary   0.686    10  0.0309 Prepro…
 7        6.51e-10          1    18 roc_auc binary   0.681    10  0.0170 Prepro…
 8        2.74e- 9         15    30 roc_auc binary   0.749    10  0.0230 Prepro…
 9        6.52e- 3          7    36 roc_auc binary   0.747    10  0.0173 Prepro…
10        1.39e- 3         14     6 roc_auc binary   0.723    10  0.0313 Prepro…
# … with 20 more rows, and abbreviated variable name ¹​.estimator
…
